Take-home Exercise 1 (Part 2) – ISSS608-VAA
…
The age column has 664 missing values, which have been stored as strings before data type conversion. In this case, we do not need to remove those data.

colSums(is.na(sgresident ))

  PA   SZ  Age  Sex  Pop Time 
   0    0  664    0    0    0 

2.6 Preview pre-processed dataframe

We use the function head() to preview the first few rows of the pre-processed dataframe:

head(sgresident, 200)

# A tibble: 200 × 6
   PA         SZ                       Age Sex       Pop  Time
   <chr>      <chr>                  <dbl> <fct>   <dbl> <int>
 1 Ang Mo Kio Ang Mo Kio Town Centre     0 Males      10  2024
 2 Ang Mo Kio Ang Mo Kio Town Centre     0 Females    10  2024
 3 Ang Mo Kio Ang Mo Kio Town Centre     1 Males      10  2024
 4 Ang Mo Kio Ang Mo Kio Town Centre     1 Females    10  2024
 5 Ang Mo Kio Ang Mo Kio Town Centre     2 Males      10  2024
 6 Ang Mo Kio Ang Mo Kio Town Centre     2 Females    10  2024
 7 Ang Mo Kio Ang Mo Kio Town Centre     3 Males      10  2024
 8 Ang Mo Kio Ang Mo Kio Town Centre     3 Females    10  2024
 9 Ang Mo Kio Ang Mo Kio Town Centre     4 Males      30  2024
10 Ang Mo Kio Ang Mo Kio Town Centre     4 Females    10  2024
# ℹ 190 more rows
…
